[
    "Bourgogne", 
    "Walcheren", 
    "Westhoek", 
    "Friesland", 
    "Westervoort", 
    "Assen", 
    "Bergen op Zoom", 
    "Alphen aan den Rijn", 
    "Dinteloord", 
    "Berkel-Enschot", 
    "Waalre", 
    "Tubbergen", 
    "Chaam", 
    "Asten", 
    "Tongelreep", 
    "Twenterand", 
    "Nederland", 
    "Noordenveld", 
    "Dam", 
    "Vrouwenpolder", 
    "Rumpt", 
    "Meijel", 
    "Warmond", 
    "Duiven", 
    "Heiligerlee", 
    "Heers", 
    "Dwingeloo", 
    "Blieberg", 
    "Bergambacht", 
    "Annen", 
    "Waterloo", 
    "Oldebroek", 
    "Heerewaarden", 
    "Markelo", 
    "Maasbracht", 
    "Montfort", 
    "Liesveld", 
    "Waterland-Oudeman", 
    "Rottumeroog", 
    "Munte", 
    "Westerschouwen", 
    "Scharmer", 
    "Strijpen", 
    "Averbode", 
    "Raar", 
    "Ter Apel", 
    "Slochteren", 
    "Maaskant", 
    "Loenen", 
    "Odoorn", 
    "Berkelland", 
    "Bronckhorst", 
    "Wuustwezel", 
    "Heijningen", 
    "Echt-Susteren", 
    "Zeedorp", 
    "Medemblik", 
    "Kampenhout", 
    "Strijen", 
    "Brouwershaven", 
    "Littenseradiel", 
    "Woldendorp", 
    "Deventer", 
    "Posterholt", 
    "Veendam", 
    "Dirksland", 
    "Westpoort", 
    "Hummelo", 
    "Belfeld", 
    "Elburg", 
    "Zalk", 
    "Betuwe", 
    "Zevenbergen", 
    "Paterswolde", 
    "Meerle", 
    "Rijnsburg", 
    "Muiderslot", 
    "Riethoven", 
    "Rijsbergen", 
    "Turnhout", 
    "Meerlo", 
    "Noordwijkerhout", 
    "Rheden", 
    "Warffum", 
    "Koekelberg", 
    "Hichtum", 
    "Hagestein", 
    "Dodewaard", 
    "Poppel", 
    "Lint", 
    "Verviers", 
    "Rumbeke", 
    "Lelystad", 
    "Weststellingwerf", 
    "Walsoorden", 
    "Nieuwkoop", 
    "'s-Hertogenbosch", 
    "De Hoop", 
    "Hoogezand-Sappemeer", 
    "Venhuizen", 
    "Hengelo", 
    "Liempde", 
    "Groede", 
    "Blankenberg", 
    "Zelt", 
    "Haaksbergen", 
    "Nieuw-Vossemeer", 
    "Teteringen", 
    "Loenhout", 
    "Utrecht", 
    "Heiloo", 
    "Bellingwedde", 
    "Edam-Volendam", 
    "Laren", 
    "Waardenburg", 
    "Ravenstein", 
    "Helvoirt", 
    "De Noord", 
    "Eede", 
    "Born", 
    "Westendorp", 
    "Vriezenveen", 
    "Rekken", 
    "Uden", 
    "Wageningen", 
    "Brakel", 
    "Tilburg", 
    "Rhoon", 
    "Echtenerbrug", 
    "Neerbeek", 
    "Grouw", 
    "Helden", 
    "Walem", 
    "Boekel", 
    "Leusden", 
    "Zandstraat", 
    "Geeuwenbrug", 
    "Geulle", 
    "Maasland", 
    "Baarle-Nassau", 
    "Heeze", 
    "Vorden", 
    "Slootdorp", 
    "Renkum", 
    "Homberg", 
    "Winsum", 
    "Scheemda", 
    "Korn", 
    "Wijhe", 
    "Sappemeer", 
    "Stramproy", 
    "Warder", 
    "Kerkrade", 
    "Giessenlanden", 
    "Westzaan", 
    "Beesel", 
    "Elleboog", 
    "Lent", 
    "Nieuw-Dordrecht", 
    "De Leeuw", 
    "Provence", 
    "Schiedam", 
    "Eemmeer", 
    "Alphen", 
    "Ballast", 
    "Winterswijk", 
    "Moergestel", 
    "Albrandswaard", 
    "Lichtenvoorde", 
    "Tynaarlo", 
    "Bodegraven", 
    "Spaarnwoude", 
    "Ridderkerk", 
    "De Meern", 
    "Vierlingsbeek", 
    "Bussum", 
    "Roosendaal", 
    "Antwerpen", 
    "Druten", 
    "Mill en Sint Hubert", 
    "Julianadorp", 
    "Rotselaar", 
    "Rolpaal", 
    "Blaricum", 
    "Steenvoorde", 
    "Maastricht", 
    "Maasdriel", 
    "Lith", 
    "Amersfoort", 
    "Wieringen", 
    "Kortenberg", 
    "Voorweg", 
    "Zundert", 
    "Achterhoek", 
    "Olst-Wijhe", 
    "Botter", 
    "Simpelveld", 
    "Austerlitz", 
    "Bladel", 
    "Nibbixwoud", 
    "Zeevang", 
    "Scherpenzeel", 
    "Zoetermeer", 
    "Velsen", 
    "Sterksel", 
    "Wijdemeren", 
    "Bleiswijk", 
    "Norg", 
    "Lingewaal", 
    "Sint-Michielsgestel", 
    "Reeuwijk", 
    "Harlingen", 
    "Lopik", 
    "Tafelberg", 
    "Willemstad", 
    "Graft", 
    "Montferland", 
    "Helle", 
    "Garderen", 
    "Musselkanaal", 
    "Oisterwijk", 
    "Montevideo", 
    "Sint-Oedenrode", 
    "Huizen", 
    "Kolhorn", 
    "Lieshout", 
    "Stok", 
    "Nieuwerkerk", 
    "Nieuwland", 
    "Veulen", 
    "Domburg", 
    "Voorde", 
    "Schermer", 
    "Oude Pekela", 
    "Reiderland", 
    "Pekela", 
    "Diemen", 
    "Stekene", 
    "Terschelling", 
    "Zeeuws-Vlaanderen", 
    "Wateringen", 
    "Aarle-Rixtel", 
    "Doornik", 
    "Tholen", 
    "Ede", 
    "Harmelen", 
    "Wachtebeke", 
    "Den Ham", 
    "Vlagtwedde", 
    "Krommenie", 
    "Boxmeer", 
    "Vught", 
    "Almere", 
    "Landgraaf", 
    "Drachten", 
    "Vlist", 
    "Kemzeke", 
    "Veluwe", 
    "Knokke-Heist", 
    "Eemsmond", 
    "Voorhout", 
    "Hazenberg", 
    "Wormer", 
    "Wildert", 
    "Osdorp", 
    "Teylingen", 
    "Rolde", 
    "Eemnes", 
    "Nieuwenhove", 
    "Hindeloopen", 
    "Katwijk", 
    "Heerde", 
    "Spijk", 
    "Mariekerke", 
    "Landerd", 
    "Minderhout", 
    "Luik", 
    "Leimuiden", 
    "Veere", 
    "De Bilt", 
    "Wezuperbrug", 
    "Nieuwegein", 
    "Rupelmonde", 
    "Varendonk", 
    "Anna Paulowna", 
    "Ouder-Amstel", 
    "Heerenveen", 
    "Scheveningen", 
    "Doesburg", 
    "Overschild", 
    "Montfoort", 
    "Baarn", 
    "Weelde", 
    "Veenhuizen", 
    "Westerbork", 
    "IJsselmeer", 
    "Alkmaar", 
    "Blokland", 
    "Lomm", 
    "Rijsenburg", 
    "Zeist", 
    "Andijk", 
    "Schagen", 
    "Sittard", 
    "Voorburg", 
    "Waddinxveen", 
    "Baars", 
    "Helmond", 
    "Kelmis", 
    "Stampersgat", 
    "Beverwijk", 
    "Pieterburen", 
    "Spaarndam", 
    "Havelte", 
    "Marken", 
    "Hoensbroek", 
    "Zweeloo", 
    "Son en Breugel", 
    "Huissen", 
    "Naarden", 
    "Cranendonck", 
    "Nijmegen", 
    "Loppersum", 
    "Netersel", 
    "Mill", 
    "Fijnaart", 
    "Loenen aan de Vecht", 
    "Heerjansdam", 
    "Roermond", 
    "Rijkel", 
    "Luchtenburg", 
    "Veenhof", 
    "Rijssen", 
    "Geldrop", 
    "Lauwersoog", 
    "Milheeze", 
    "Nederweert", 
    "Geertruidenberg", 
    "De Aa", 
    "Petersburg", 
    "Numansdorp", 
    "Gaasbeek", 
    "Sint-Gillis-Waas", 
    "Moerkapelle", 
    "Westland", 
    "Huijbergen", 
    "Limmen", 
    "Noordereiland", 
    "Zwartsluis", 
    "Westernieland", 
    "Onderbanken", 
    "Enghuizen", 
    "Voorst", 
    "Nisse", 
    "Badhoevedorp", 
    "Eersel", 
    "Grave", 
    "De Baarsjes", 
    "Hall", 
    "Arnhem", 
    "Ruinen", 
    "Kessel", 
    "Arnemuiden", 
    "Breda", 
    "Oud-West", 
    "Vollenhove", 
    "Geldermalsen", 
    "Maarssen", 
    "Eeklo", 
    "Bathmen", 
    "Eelde", 
    "Vlissingen", 
    "Nieuwe Kerk", 
    "Steenderen", 
    "Boornzwaag", 
    "Venlo", 
    "Den Haag", 
    "Kwartier", 
    "Leidschendam", 
    "Ameide", 
    "Tiel", 
    "De Engel", 
    "Zijpe", 
    "Ee", 
    "Esch", 
    "Zuiddorpe", 
    "Horn", 
    "Kleve", 
    "Leende", 
    "Borger-Odoorn", 
    "De Hout", 
    "Dinkelland", 
    "Rijswijk", 
    "Sint-Niklaas", 
    "Wervershoof", 
    "Feijenoord", 
    "Rien", 
    "Voerendaal", 
    "Obdam", 
    "Gemert", 
    "Ried", 
    "Bovenstreek", 
    "Halle", 
    "Ingen", 
    "Hilvarenbeek", 
    "Ooststellingwerf", 
    "Roerdalen", 
    "Axel", 
    "Wortel", 
    "Bunschoten", 
    "Gorinchem", 
    "Texel", 
    "Schoonhoven", 
    "Waalwijk", 
    "Gelderland", 
    "Lochem", 
    "Oud-Beijerland", 
    "Didam", 
    "Brielle", 
    "Franekeradeel", 
    "Leersum", 
    "Blauwhuis", 
    "Schinnen", 
    "Meppel", 
    "Noordoostpolder", 
    "Oosterwierum", 
    "Hoogvliet", 
    "Breezand", 
    "Halderberge", 
    "Moorsel", 
    "Hoogstraten", 
    "Onstwedde", 
    "Gent", 
    "Ruurlo", 
    "Dussen", 
    "Cottessen", 
    "Siddeburen", 
    "Achterdiep", 
    "Ootmarsum", 
    "Zierikzee", 
    "Delden", 
    "Zeewolde", 
    "Bovenkerk", 
    "Vlieland", 
    "IJsselmonde", 
    "Wormerland", 
    "Heteren", 
    "Geesbrug", 
    "Swier", 
    "Wijchen", 
    "Naaldwijk", 
    "Zandvoort", 
    "Itens", 
    "Raadhuis", 
    "Vessem", 
    "Rozenburg", 
    "Reimerswaal", 
    "Bergen", 
    "Sint-Laureins", 
    "Zelzate", 
    "Culemborg", 
    "Altena", 
    "Ketelmeer", 
    "Midden-Delfland", 
    "Zuidlaren", 
    "Baak", 
    "Hofstade", 
    "Meerdonk", 
    "Someren", 
    "Langbroek", 
    "Koekoek", 
    "Boxtel", 
    "Woltersum", 
    "Anloo", 
    "Rosmalen", 
    "Zaanstad", 
    "Lage Zwaluwe", 
    "De Klinge", 
    "Haastrecht", 
    "Borssele", 
    "Hof van Twente", 
    "Noord-Holland", 
    "Zederik", 
    "Ulft", 
    "Middelaar", 
    "Drenthe", 
    "Tegelen", 
    "Nieuwerkerk aan den IJssel", 
    "Overbetuwe", 
    "Hoogezand", 
    "Woudsend", 
    "Opsterland", 
    "Arendonk", 
    "Dwarsdiep", 
    "Waterland", 
    "Oostereinde", 
    "Oldenzaal", 
    "Zeeland", 
    "Berkel en Rodenrijs", 
    "Dordrecht", 
    "Wierden", 
    "Thorn", 
    "Schore", 
    "Leerdam", 
    "Standdaarbuiten", 
    "Lede", 
    "Boornbergum", 
    "Delft", 
    "Benthuizen", 
    "Neerpelt", 
    "Wijdenes", 
    "Weerselo", 
    "Purmerend", 
    "Wierde", 
    "Alblasserwaard", 
    "Zaandam", 
    "Philippine", 
    "Aadorp", 
    "Duinkerken", 
    "Krimpen aan den IJssel", 
    "Zenderen", 
    "Pol", 
    "Banholt", 
    "Holendrecht", 
    "Bernisse", 
    "Aalten", 
    "Franeker", 
    "Dongeradeel", 
    "Mechelen", 
    "Boermastreek", 
    "Slagharen", 
    "Capelle aan den IJssel", 
    "Drimmelen", 
    "Drunen", 
    "Roggel", 
    "Waal", 
    "Brummen", 
    "Heuvelland", 
    "Sluis", 
    "Noordeinde", 
    "Borculo", 
    "Zuideramstel", 
    "Oud-Alblas", 
    "Bedum", 
    "Blokzijl", 
    "Udenhout", 
    "Amstelveen", 
    "Schouwen", 
    "Dongen", 
    "Vlimmeren", 
    "Landsmeer", 
    "Vaals", 
    "Veldhoven", 
    "Westkapelle", 
    "Schijndel", 
    "Warnsveld", 
    "Maasmechelen", 
    "Vorselaar", 
    "Harderwijk", 
    "Oudeschip", 
    "Wissel", 
    "Dronten", 
    "Vledder", 
    "Bever", 
    "Hank", 
    "Luttelgeest", 
    "Wieringermeer", 
    "Neerijnen", 
    "Nederlek", 
    "Doorn", 
    "Zuid-Holland", 
    "Maldegem", 
    "Groenendijk", 
    "Winschoten", 
    "Mussel", 
    "Wessem", 
    "Menterwolde", 
    "Echteld", 
    "Busch", 
    "Benthem", 
    "Heure", 
    "Hilversum", 
    "Monnickendam", 
    "Ens", 
    "Horst", 
    "Zoeterwoude", 
    "Wagenberg", 
    "Kapelle", 
    "Laar", 
    "Wormerveer", 
    "Sprang", 
    "Neder-Betuwe", 
    "Putten", 
    "Yerseke", 
    "Nuth", 
    "Woudenberg", 
    "Wassenaar", 
    "Deurne", 
    "Eindhoven", 
    "Linschoten", 
    "Wilhelminadorp", 
    "Edens", 
    "Smalle Ee", 
    "Veghel", 
    "Ameland", 
    "Hunsel", 
    "Linden", 
    "Hoorn", 
    "Mastenbroek", 
    "Spannenburg", 
    "Maasdam", 
    "Gebroek", 
    "Bergeijk", 
    "Joppe", 
    "Nijeveen", 
    "Wezet", 
    "Hattem", 
    "Leek", 
    "Goor", 
    "Echten", 
    "Egmond", 
    "Hellevoetsluis", 
    "Barneveld", 
    "IJsselham", 
    "Duiveland", 
    "Weesp", 
    "IJsselmuiden", 
    "Abcoude", 
    "Boekhoute", 
    "Westervelde", 
    "Aa en Hunze", 
    "Maartensdijk", 
    "Ten Boer", 
    "Wezemaal", 
    "Assenede", 
    "Hollander", 
    "Merksplas", 
    "Ter Heijde", 
    "Susteren", 
    "Uitgeest", 
    "Grevenbicht", 
    "Zaltbommel", 
    "Nes", 
    "Oosterleek", 
    "Woudrichem", 
    "Vlaardingen", 
    "Eijsden", 
    "Maurik", 
    "IJmeer", 
    "Sevenum", 
    "Nutter", 
    "Beuningen", 
    "Lingewaard", 
    "Dokkum", 
    "Warmenhuizen", 
    "Goeree-Overflakkee", 
    "Vlijmen", 
    "Ruinerwold", 
    "Schiermonnikoog", 
    "Schipluiden", 
    "Zwijndrecht", 
    "Zuidhorn", 
    "Kempen", 
    "Aalsum", 
    "Berendrecht", 
    "Almelo", 
    "Terheijden", 
    "Oude IJsselstreek", 
    "Heino", 
    "Steenbergen", 
    "Woerd", 
    "Beilen", 
    "Loo", 
    "Gennep", 
    "Ubbergen", 
    "Gibraltar", 
    "Enter", 
    "Middelharnis", 
    "Horst aan de Maas", 
    "Arum", 
    "'s-Gravenzande", 
    "Flevoland", 
    "Binnenmaas", 
    "Mook en Middelaar", 
    "Lokeren", 
    "Witteveen", 
    "'s-Graveland", 
    "Emmen", 
    "Voorschoten", 
    "Beers", 
    "Willemsoord", 
    "Opmeer", 
    "Rhenen", 
    "Aardenburg", 
    "Groningen", 
    "Pyramide", 
    "Etten-Leur", 
    "Maasdonk", 
    "Hoogeveen", 
    "Nieuwpoort", 
    "Cothen", 
    "Overijssel", 
    "Meeuwen", 
    "Ridderbuurt", 
    "Ommen", 
    "Margraten", 
    "Den Helder", 
    "Diever", 
    "Zevenhuizen", 
    "Halder", 
    "Perwijs", 
    "Lewedorp", 
    "Westvoorne", 
    "Oostburg", 
    "Oudewater", 
    "Oegstgeest", 
    "Smallingerland", 
    "Oosterhout", 
    "Hulst", 
    "Warns", 
    "Noorderkwartier", 
    "Maasbree", 
    "Dieverbrug", 
    "Uithoorn", 
    "Hool", 
    "Hekendorp", 
    "Hardinxveld-Giessendam", 
    "Maarheeze", 
    "Donk", 
    "Wildervank", 
    "Haarlemmerliede en Spaarnwoude", 
    "Beek en Donk", 
    "Tiengemeten", 
    "Westkerke", 
    "Goedereede", 
    "Swalmen", 
    "Ouderkerk", 
    "Midden-Drenthe", 
    "Oosterend", 
    "Haren", 
    "Erp", 
    "Woerden", 
    "Spaanshuisken", 
    "Laarbeek", 
    "Rozendaal", 
    "Hoogzand", 
    "Akersloot", 
    "IJlst", 
    "Westerhoven", 
    "Ekehaar", 
    "Beerse", 
    "Valkenburg", 
    "Astense Aa", 
    "Asch", 
    "Waver", 
    "Westerkerk", 
    "Wanssum", 
    "Buitenzorg", 
    "Klundert", 
    "Staphorst", 
    "Itterbeek", 
    "Berlicum", 
    "Rucphen", 
    "Oosterwijk", 
    "Noorderkerk", 
    "Tempel", 
    "Maassluis", 
    "Edam", 
    "Sion", 
    "Ambt Montfort", 
    "Nuenen", 
    "Strijp", 
    "Gramsbergen", 
    "St. Willebrord", 
    "Leur", 
    "Hoek van Holland", 
    "Beemster", 
    "Wanne", 
    "Hondsrug", 
    "De Panne", 
    "Oosterwolde", 
    "Lemsterland", 
    "Monster", 
    "Dinxperlo", 
    "Gendringen", 
    "Rijnwaarden", 
    "Geuzenveld", 
    "Made", 
    "Kruiningen", 
    "Utrechtse Heuvelrug", 
    "Nijkerk", 
    "Winde", 
    "Sliedrecht", 
    "Enkhuizen", 
    "Kortrijk", 
    "Elsendorp", 
    "Smilde", 
    "Brunssum", 
    "Papendrecht", 
    "Appingedam", 
    "Lienden", 
    "Terneuzen", 
    "Oosterbeek", 
    "Raamsdonk", 
    "Nispen", 
    "Overbroek", 
    "Urk", 
    "Muiden", 
    "Rijen", 
    "Vianen", 
    "Everberg", 
    "Ossenisse", 
    "Reusel", 
    "Ouderkerk aan den IJssel", 
    "Oosterwijtwerd", 
    "Gasselte", 
    "Middelie", 
    "Hooge Zwaluwe", 
    "Dilsen-Stokkem", 
    "Hendrik-Ido-Ambacht", 
    "Haasdonk", 
    "Mirns", 
    "Bloemendaal", 
    "Pijnacker", 
    "Jordaan", 
    "Luyksgestel", 
    "Heinkenszand", 
    "Oudorp", 
    "Veelerveen", 
    "Lange Linschoten", 
    "Genemuiden", 
    "Zonnebeke", 
    "Delfzijl", 
    "Buren", 
    "Westeremden", 
    "Ter Aar", 
    "Heerhugowaard", 
    "Bemmel", 
    "Mijdrecht", 
    "Budel", 
    "Langedijk", 
    "Heemskerk", 
    "Heythuysen", 
    "De Pijp", 
    "Streefkerk", 
    "Haaren", 
    "Hofwegen", 
    "Driebergen-Rijsenburg", 
    "Dalfsen", 
    "Terhagen", 
    "Tiendeveen", 
    "Koggenland", 
    "Venray", 
    "Steenwijkerland", 
    "Leiderdorp", 
    "Ossendrecht", 
    "Schoonebeek", 
    "Cuijk", 
    "Etsberg", 
    "Giessen", 
    "Noordwijk", 
    "Poortugaal", 
    "Waterstraat", 
    "Nunspeet", 
    "Leeuwarden", 
    "Zutphen", 
    "Kampen", 
    "Zelhem", 
    "Hooft", 
    "Rutten", 
    "Hedel", 
    "Den Burg", 
    "Stede Broec", 
    "Zuidland", 
    "Heusden", 
    "Diepenheim", 
    "Vilt", 
    "Nieuwdorp", 
    "Geleen", 
    "Diepenveen", 
    "Beek", 
    "Weert", 
    "Hamont-Achel", 
    "De Wolden", 
    "Hoevelaken", 
    "Leeuwarderadeel", 
    "Alphen-Chaam", 
    "Gorssel", 
    "Renswoude", 
    "Holten", 
    "Kesteren", 
    "Ermelo", 
    "Stadskanaal", 
    "Graven", 
    "Draaibrug", 
    "Tongeren", 
    "Oldeberkoop", 
    "Vleuten", 
    "Slotervaart", 
    "Valkenburg aan de Geul", 
    "IJsselstein", 
    "Sneek", 
    "Barendrecht", 
    "Beets", 
    "Yde", 
    "Eerbeek", 
    "Putte", 
    "Wittem", 
    "Peize", 
    "Westerlee", 
    "Aalst", 
    "Engelen", 
    "Heemstede", 
    "Middelburg", 
    "Vlodrop", 
    "Hoogland", 
    "Hoogwoud", 
    "Diessen", 
    "Basse", 
    "Marle", 
    "Breukelen", 
    "Steenwijk", 
    "IJplein", 
    "Tin", 
    "Roden", 
    "Bolsward", 
    "Putbroek", 
    "Rotte", 
    "Purmer", 
    "Epe", 
    "Zwartewaterland", 
    "Liedekerke", 
    "Bruinisse", 
    "Westergeest", 
    "Baarle-Hertog", 
    "Oss", 
    "Werkendam", 
    "Denekamp", 
    "Moerdijk", 
    "Koog aan de Zaan", 
    "Tricht", 
    "Bernheze", 
    "Oosterbroek", 
    "Houten", 
    "Achtkarspelen", 
    "Bunnik", 
    "Prinsenbeek", 
    "Haelen", 
    "Borne", 
    "Ravels", 
    "Ammerzoden", 
    "Best", 
    "Oostzaan", 
    "Dreumel", 
    "Slotermeer", 
    "Raamsdonksveer", 
    "Ell", 
    "Halsteren", 
    "Drechterland", 
    "Noord-Brabant", 
    "Vuren", 
    "Broekhuizen", 
    "IJmuiden", 
    "Finsterwolde", 
    "Hasselt", 
    "Wekerom", 
    "Achterdijk", 
    "Castricum", 
    "Rotterdam", 
    "Bosch", 
    "Grote Kerk", 
    "Wijk bij Duurstede", 
    "Zonneveld", 
    "Rijpwetering", 
    "Aalsmeer", 
    "'s-Gravendeel", 
    "Meerssen", 
    "Norma", 
    "Borger", 
    "Roost", 
    "Nootdorp", 
    "Bergum", 
    "Voort", 
    "Volendam", 
    "Slenaken", 
    "Woensdrecht", 
    "Zevenaar", 
    "Wapenveld", 
    "Nieuw-Amsterdam", 
    "Cromstrijen", 
    "Spijkenisse", 
    "Amerongen", 
    "Moerbeke", 
    "Kaag", 
    "Heveadorp", 
    "Brandenburg", 
    "Plein", 
    "Zuidwolde", 
    "Paleis op de Dam", 
    "Losser", 
    "Berkel", 
    "Well", 
    "Lisse", 
    "Hoogeloon", 
    "Hillegom", 
    "Pernis", 
    "Overloon", 
    "Angerlo", 
    "Vrouwenakker", 
    "Coevorden", 
    "Giessenburg", 
    "Borsele", 
    "Enschede", 
    "Doetinchem", 
    "Noord-Beveland", 
    "Zaandijk", 
    "Aalburg", 
    "Walk", 
    "Bocholt", 
    "Oosterhesselen", 
    "Sint-Jan", 
    "Nieuwleusen", 
    "Westerklief", 
    "Nieuwe Pekela", 
    "Wals", 
    "Sint Hubert", 
    "Sassenheim", 
    "Gouda", 
    "Limburg", 
    "Haarlem", 
    "Raalte", 
    "Korendijk", 
    "Kalmthout", 
    "Hoofddorp", 
    "Bos en Lommer", 
    "Moordrecht", 
    "Marum", 
    "Alblasserdam", 
    "West Maas en Waal", 
    "Twente", 
    "Zeerijp", 
    "Oosternieland", 
    "Waspik", 
    "Nieuw-Lekkerland", 
    "Sint-Gillis", 
    "Bakhuizen", 
    "Haarlemmerliede", 
    "Bredevoort", 
    "Diepswal", 
    "Vaalserberg", 
    "Vaassen", 
    "Halve Maan", 
    "Spijkerboor", 
    "Schiphol", 
    "Zuidertoren", 
    "Welle", 
    "Overveen", 
    "Elst", 
    "Hees", 
    "Travers", 
    "Haarlemmermeer", 
    "Heumen", 
    "Ophoven", 
    "Rossum", 
    "De Ronde Venen", 
    "Bennebroek", 
    "Puttershoek", 
    "Valburg", 
    "Kwakkel", 
    "Sint Anthonis", 
    "Middelland", 
    "Alem", 
    "Valkenswaard", 
    "Sprang-Capelle", 
    "Zwolle", 
    "Nijvelaar", 
    "Amsterdam", 
    "Roosbeek", 
    "Hardenberg", 
    "Apeldoorn", 
    "Mierlo", 
    "Wognum", 
    "Boskoop", 
    "Neede", 
    "Bakel", 
    "Heerlen", 
    "Soest", 
    "Beveren", 
    "Loon op Zand", 
    "Oudenbosch", 
    "Achterberg", 
    "Oirschot", 
    "Hellendoorn", 
    "Sint-Margriete", 
    "Westerveld", 
    "De Kar", 
    "Hoogstade"
]