[
    "Canada", 
    "Woud", 
    "Hal", 
    "Ham", 
    "Val", 
    "Dalen", 
    "Doel", 
    "Noorden", 
    "Kruis", 
    "Pampus", 
    "Nazareth", 
    "Waag", 
    "Mies", 
    "Alpen", 
    "Dorp", 
    "Stein", 
    "Dal", 
    "Brand", 
    "Heuvel", 
    "Huls", 
    "Mol", 
    "Hoven", 
    "Raam", 
    "Punt", 
    "Eik",  
    "Bruggen", 
    "Dijk", 
    "Bern", 
    "Denemarken", 
    "Boer", 
    "Waarde", 
    "Mossel", 
    "Echt", 
    "Fort", 
    "Moskou", 
    "Polen", 
    "Dieren", 
    "Ellen", 
    "Schouw", 
    "Anderen", 
    "Amerika", 
    "Leeuw", 
    "Geer", 
    "Engeland", 
    "Park", 
    "Berg", 
    "Eind", 
    "Ware", 
    "Pier", 
    "Strand", 
    "Duinen", 
    "Hout", 
    "Look", 
    "Gauw", 
    "Bos", 
    "Zoom", 
    "Vries", 
    "Meer", 
    "Vink", 
    "Zurich", 
    "Sloot", 
    "Hoek", 
    "Buma", 
    "Sint Maarten", 
    "Essen", 
    "Stadhuis", 
    "Vrij", 
    "Handel", 
    "Zand", 
    "Hee", 
    "Est", 
    "Ven", 
    "Hem", 
    "Balk", 
    "Amen", 
    "Bus", 
    "Einde", 
    "Leest", 
    "Varen", 
    "Eiland", 
    "Zetten", 
    "Plaat", 
    "Erica", 
    "Een", 
    "Veen", 
    "Trans", 
    "Dries", 
    "Egypte", 
    "Lies", 
    "New Orleans", 
    "Gieten", 
    "Driehoek", 
    "De Krim", 
    "Wier", 
    "Frankrijk", 
    "Middel", 
    "Dorst", 
    "Kade", 
    "Vliet", 
    "Broek", 
    "Linde", 
    "Kabel", 
    "Holte", 
    "Graaf", 
    "America", 
    "Hoeven", 
    "Gebergte", 
    "Rietveld", 
    "Viel", 
    "Oranje", 
    "Heide", 
    "IJzeren", 
    "Witte Huis", 
    "Winkel", 
    "Spitsbergen", 
    "Veld", 
    "Neer", 
    "Ruiter", 
    "Lei", 
    "Draai",
    "Heel",
    "Partij",
    "Flora", 
    "Loon",
    "Zuid",
    "Grens",
    "Haven", 
    "Kamp",
    "Zuidoost",
    "Noord",
    "Oost"
]